*NOTE:  DO NOT USE ANY COMMAS IN ANY FIELD,,,,,,,,,,,,,,,
*STARTOFFILE,Delivery_Import,,,,,,,,,,,,,,
CompanyID,DeviceID,JobNo,Receiver,Phone No,Add Line,Add Line2,Suburb,Postcode,Items,Notes,jobclass,email,scheduled,jobtype,ENDTAG
3,177,eg123a3,Test receiver,03 1234 5678,101 Collins Street,suite 504,Melbourne,3000,2 boxes,See reception,standard,test@co.com.au,none,delivery,ENDTAG
3,177,eg234a3,2nd test,03 1234 5679,100 Macquarie Street,Suite 301,Sydney,2000,6 envelopes,Aske for the mail room,standard,test@thatco.com.au,2014-02-11-10:10,delivery,ENDTAG
3,177,eg235a3,Receiver,,56 Dawson Street,,Bairnsdale,,,,,,,delivery,ENDTAG
*END OF FILE,,,,,,,,,,,,,,,
*NOTE:  DO NOT USE ANY COMMAS IN ANY FIELD,,,,,,,,,,,,,,,
